<?xml version="1.0" encoding="UTF-8" standalone="no"?>
<!-- Generator: Adobe Illustrator 21.0.0, SVG Export Plug-In . SVG Version: 6.00 Build 0)  -->

<svg
   xmlns:osb="http://www.openswatchbook.org/uri/2009/osb"
   xmlns:dc="http://purl.org/dc/elements/1.1/"
   xmlns:cc="http://creativecommons.org/ns#"
   xmlns:rdf="http://www.w3.org/1999/02/22-rdf-syntax-ns#"
   xmlns:svg="http://www.w3.org/2000/svg"
   xmlns="http://www.w3.org/2000/svg"
   xmlns:xlink="http://www.w3.org/1999/xlink"
   xmlns:sodipodi="http://sodipodi.sourceforge.net/DTD/sodipodi-0.dtd"
   xmlns:inkscape="http://www.inkscape.org/namespaces/inkscape"
   version="1.1"
   id="svg29"
   inkscape:version="0.92.2 2405546, 2018-03-11"
   sodipodi:docname="map.svg"
   x="0px"
   y="0px"
   viewBox="0 0 819.26969 865.35118"
   xml:space="preserve"
   width="100%"
   height="100%"><metadata
     id="metadata64"><view
       id="view-Orientations"
       viewBox="18 235 100 41" /><view
       id="view-Sites_satellites"
       viewBox="136 238 115 43" /><view
       id="view-Page_web"
       viewBox="262 235 97 44" /><view
       id="view-Main"
       viewBox="27 149 27 25" /><view
       id="view-Enseignants"
       viewBox="64 153 26 22" /><view
       id="view-Category"
       viewBox="103 151 22 21" /><view
       id="view-Marker"
       viewBox="327 10 47 15" /><rdf:RDF><cc:Work
         rdf:about=""><dc:format>image/svg+xml</dc:format><dc:type
           rdf:resource="http://purl.org/dc/dcmitype/StillImage" /><dc:title /></cc:Work></rdf:RDF></metadata><defs
     id="defs62"><linearGradient
       id="linearGradient970"><stop
         id="stop966"
         offset="0"
         style="stop-color:#00f500;stop-opacity:1" /><stop
         id="stop968"
         offset="1"
         style="stop-color:#ffffff;stop-opacity:0.05472637" /></linearGradient><linearGradient
       id="linearGradient3906"><stop
         id="stop3908"
         offset="0"
         style="stop-color:#b3fbb6;stop-opacity:1;" /><stop
         id="stop3910"
         offset="1"
         style="stop-color:#ffffff;stop-opacity:0.05472637" /></linearGradient><linearGradient
       id="linearGradient6523"
       osb:paint="solid"><stop
         style="stop-color:#ffffff;stop-opacity:1;"
         offset="0"
         id="stop6525" /></linearGradient><linearGradient
       id="linearGradient6513"><stop
         style="stop-color:#ffffff;stop-opacity:1;"
         offset="0"
         id="stop6515" /><stop
         style="stop-color:#ffffff;stop-opacity:0;"
         offset="1"
         id="stop6517" /></linearGradient><linearGradient
       id="linearGradient6338"
       osb:paint="solid"><stop
         style="stop-color:#63ffff;stop-opacity:1;"
         offset="0"
         id="stop6340" /></linearGradient><linearGradient
       id="linearGradient5916"><stop
         style="stop-color:#fff400;stop-opacity:0.99259257;"
         offset="0"
         id="stop5918" /><stop
         style="stop-color:#ffe802;stop-opacity:0;"
         offset="1"
         id="stop5920" /></linearGradient><inkscape:path-effect
       effect="construct_grid"
       id="path-effect3989"
       is_visible="true"
       nr_x="5"
       nr_y="5" /><inkscape:path-effect
       effect="knot"
       id="path-effect3987"
       is_visible="true"
       interruption_width="3"
       prop_to_stroke_width="true"
       add_stroke_width="true"
       add_other_stroke_width="true"
       switcher_size="15"
       crossing_points_vector="" /><inkscape:path-effect
       effect="gears"
       id="path-effect3985"
       is_visible="true"
       teeth="10"
       phi="5" /><inkscape:path-effect
       effect="envelope"
       id="path-effect3983"
       is_visible="true"
       yy="true"
       xx="true"
       bendpath1="m 85.291274,141.31614 16.781006,0"
       bendpath2="m 102.07228,141.31614 0,17.36037"
       bendpath3="m 85.291274,158.67651 16.781006,0"
       bendpath4="m 85.291274,141.31614 0,17.36037" /><inkscape:path-effect
       effect="envelope"
       id="path-effect3981"
       is_visible="true"
       yy="true"
       xx="true"
       bendpath1="m 85.291274,141.31614 16.781006,0"
       bendpath2="m 102.07228,141.31614 0,17.36037"
       bendpath3="m 85.291274,158.67651 16.781006,0"
       bendpath4="m 85.291274,141.31614 0,17.36037" /><inkscape:path-effect
       effect="sketch"
       id="path-effect3979"
       is_visible="true"
       nbiter_approxstrokes="5"
       strokelength="100"
       strokelength_rdm="0.3;1"
       strokeoverlap="0.3"
       strokeoverlap_rdm="0.3;1"
       ends_tolerance="0.1;1"
       parallel_offset="5;1"
       tremble_size="5;1"
       tremble_frequency="1"
       nbtangents="5"
       tgt_places_rdmness="1;1"
       tgtscale="10"
       tgtlength="100"
       tgtlength_rdm="0.3;1" /><inkscape:path-effect
       effect="bend_path"
       id="path-effect3977"
       is_visible="true"
       bendpath="m 85.291274,149.99633 16.781006,0"
       prop_scale="1"
       scale_y_rel="false"
       vertical="false" /><inkscape:path-effect
       effect="vonkoch"
       id="path-effect3975"
       is_visible="true"
       ref_path="m 85.291274,149.99633 16.781006,0"
       generator="m 85.291274,158.67651 5.593669,0 m 5.593668,0 5.593669,0"
       similar_only="false"
       nbgenerations="1"
       drawall="true"
       maxComplexity="1000" /><inkscape:path-effect
       effect="spiro"
       id="path-effect3973"
       is_visible="true" /><inkscape:path-effect
       effect="spiro"
       id="path-effect3971"
       is_visible="true" /><linearGradient
       id="linearGradient3943"><stop
         id="stop3945"
         offset="0"
         style="stop-color:#f600e5;stop-opacity:1;" /><stop
         id="stop3947"
         offset="1"
         style="stop-color:#ffffff;stop-opacity:0.05472637" /></linearGradient><linearGradient
       id="linearGradient890"><stop
         style="stop-color:#00cc00;stop-opacity:1;"
         offset="0"
         id="stop886" /><stop
         style="stop-color:#ffffff;stop-opacity:0.05472637"
         offset="1"
         id="stop888" /></linearGradient><linearGradient
       inkscape:collect="always"
       id="linearGradient4170"><stop
         style="stop-color:#000000;stop-opacity:1;"
         offset="0"
         id="stop4172" /><stop
         style="stop-color:#000000;stop-opacity:0;"
         offset="1"
         id="stop4174" /></linearGradient><linearGradient
       id="linearGradient5413"><stop
         style="stop-color:#0233ff;stop-opacity:1;"
         offset="0"
         id="stop5415" /><stop
         style="stop-color:#d9ffff;stop-opacity:1;"
         offset="1"
         id="stop5417" /></linearGradient><linearGradient
       inkscape:collect="always"
       id="linearGradient5397"><stop
         style="stop-color:#ff00ff;stop-opacity:1;"
         offset="0"
         id="stop5399" /><stop
         style="stop-color:#ff00ff;stop-opacity:0;"
         offset="1"
         id="stop5401" /></linearGradient><linearGradient
       inkscape:collect="always"
       id="linearGradient5385"><stop
         style="stop-color:#000000;stop-opacity:1;"
         offset="0"
         id="stop5387" /><stop
         style="stop-color:#000000;stop-opacity:0;"
         offset="1"
         id="stop5389" /></linearGradient><inkscape:perspective
       sodipodi:type="inkscape:persp3d"
       inkscape:vp_x="0.74042429 : 199.03512 : 1"
       inkscape:vp_y="0 : 1000 : 0"
       inkscape:vp_z="386.04042 : 199.03512 : 1"
       inkscape:persp3d-origin="193.39043 : 147.25179 : 1"
       id="perspective4426" /><linearGradient
       inkscape:collect="always"
       xlink:href="#linearGradient5385"
       id="linearGradient5391"
       x1="51.473263"
       y1="107.45"
       x2="152.32674"
       y2="107.45"
       gradientUnits="userSpaceOnUse" /><linearGradient
       inkscape:collect="always"
       xlink:href="#linearGradient5397"
       id="linearGradient5403"
       x1="24.830505"
       y1="142.2"
       x2="110.36965"
       y2="142.2"
       gradientUnits="userSpaceOnUse" /><linearGradient
       inkscape:collect="always"
       xlink:href="#linearGradient5413"
       id="linearGradient5419"
       x1="119.50698"
       y1="205.9375"
       x2="141.85918"
       y2="205.9375"
       gradientUnits="userSpaceOnUse" /><linearGradient
       inkscape:collect="always"
       xlink:href="#linearGradient4170"
       id="linearGradient4176"
       x1="107.70765"
       y1="193.3203"
       x2="142.60815"
       y2="193.3203"
       gradientUnits="userSpaceOnUse" /><radialGradient
       inkscape:collect="always"
       xlink:href="#linearGradient3906"
       id="radialGradient892"
       cx="296.63385"
       cy="148.9325"
       fx="296.63385"
       fy="148.9325"
       r="26.077698"
       gradientUnits="userSpaceOnUse"
       gradientTransform="matrix(0.86356908,2.0550191e-7,-2.0550183e-7,0.86356874,94.290814,20.67359)" /><radialGradient
       inkscape:collect="always"
       xlink:href="#linearGradient890"
       id="radialGradient109"
       gradientUnits="userSpaceOnUse"
       gradientTransform="matrix(0.86356908,2.0550191e-7,-2.0550183e-7,0.86356874,94.290813,20.67359)"
       cx="225.18375"
       cy="149.34317"
       fx="225.18375"
       fy="149.34317"
       r="26.077698" /><linearGradient
       id="linearGradient6275"
       osb:paint="solid"><stop
         style="stop-color:#ed0000;stop-opacity:1;"
         offset="0"
         id="stop6277" /></linearGradient><linearGradient
       inkscape:collect="always"
       xlink:href="#linearGradient5916-8"
       id="linearGradient5922-7"
       x1="62.97916"
       y1="-242.34157"
       x2="92.570389"
       y2="-242.34157"
       gradientUnits="userSpaceOnUse" /><linearGradient
       inkscape:collect="always"
       id="linearGradient5916-8"><stop
         style="stop-color:#000000;stop-opacity:1;"
         offset="0"
         id="stop5918-1" /><stop
         style="stop-color:#000000;stop-opacity:0;"
         offset="1"
         id="stop5920-6" /></linearGradient><linearGradient
       gradientTransform="matrix(0.8,0,0,0.8,-198.62799,-206.87676)"
       y2="-242.34157"
       x2="92.570389"
       y1="-242.34157"
       x1="62.97916"
       gradientUnits="userSpaceOnUse"
       id="linearGradient6014"
       xlink:href="#linearGradient5916-8"
       inkscape:collect="always" /><pattern
       inkscape:collect="always"
       xlink:href="#Strips1_2-3"
       id="pattern8443-6"
       patternTransform="scale(22.415125,50.631318)" /><pattern
       inkscape:stockid="Stripes 1:2"
       id="Strips1_2-3"
       patternTransform="translate(0,0) scale(10,10)"
       height="1"
       width="3"
       patternUnits="userSpaceOnUse"
       inkscape:collect="always"><rect
         id="rect4726-6"
         height="2"
         width="1"
         y="-0.5"
         x="0"
         style="fill:black;stroke:none" /></pattern><filter
       height="1"
       width="1"
       y="0"
       x="0"
       inkscape:label="Drawing"
       inkscape:menu="Image effects"
       inkscape:menu-tooltip="Give lead pencil or chromolithography or engraving or other effects to images and material filled objects"
       color-interpolation-filters="sRGB"
       id="filter6471"><feTurbulence
         type="fractalNoise"
         numOctaves="3"
         baseFrequency="1"
         seed="0"
         result="result0"
         id="feTurbulence6473" /><feColorMatrix
         result="result4"
         values="0"
         type="saturate"
         id="feColorMatrix6475" /><feComposite
         in="SourceGraphic"
         in2="result4"
         operator="arithmetic"
         k1="1.25"
         k2="0.5"
         k3="0.5"
         result="result2"
         id="feComposite6477" /><feBlend
         result="result5"
         mode="normal"
         in="result2"
         in2="SourceGraphic"
         id="feBlend6479" /><feComposite
         in="result5"
         in2="SourceGraphic"
         operator="in"
         result="fbSourceGraphic"
         id="feComposite6481" /><feColorMatrix
         result="fbSourceGraphicAlpha"
         in="fbSourceGraphic"
         values="0 0 0 -1 0 0 0 0 -1 0 0 0 0 -1 0 0 0 0 1 0"
         id="feColorMatrix6483" /><feGaussianBlur
         id="feGaussianBlur6485"
         stdDeviation="0.5"
         result="result8"
         in="fbSourceGraphic" /><feConvolveMatrix
         id="feConvolveMatrix6487"
         bias="0"
         result="result0"
         preserveAlpha="true"
         targetY="1"
         targetX="1"
         divisor="1"
         in="result8"
         kernelMatrix="1 1 1 1 -8 1 1 1 1 "
         order="3 3" /><feColorMatrix
         id="feColorMatrix6489"
         values="0 -6 0 0 1 0 -6 0 0 1 0 -6 0 0 1 0 0 0 1 0 "
         result="result3" /><feComposite
         id="feComposite6491"
         in2="result3"
         k3="0.3"
         k1="1"
         operator="arithmetic"
         in="fbSourceGraphic"
         result="fbSourceGraphic" /><feGaussianBlur
         id="feGaussianBlur6493"
         stdDeviation="0.01"
         in="fbSourceGraphic"
         result="result7" /><feBlend
         id="feBlend6495"
         in2="result7"
         in="result7"
         mode="multiply"
         result="result9" /><feComposite
         id="feComposite6497"
         in2="fbSourceGraphic"
         operator="in" /></filter><linearGradient
       inkscape:collect="always"
       xlink:href="#linearGradient5397"
       id="linearGradient6519"
       x1="204.39697"
       y1="52.717197"
       x2="239.85245"
       y2="52.717197"
       gradientUnits="userSpaceOnUse" /><linearGradient
       inkscape:collect="always"
       xlink:href="#linearGradient5397-4"
       id="linearGradient6519-7"
       x1="204.39697"
       y1="52.717197"
       x2="239.85245"
       y2="52.717197"
       gradientUnits="userSpaceOnUse" /><linearGradient
       inkscape:collect="always"
       id="linearGradient5397-4"><stop
         style="stop-color:#ff00ff;stop-opacity:1;"
         offset="0"
         id="stop5399-8" /><stop
         style="stop-color:#ff00ff;stop-opacity:0;"
         offset="1"
         id="stop5401-8" /></linearGradient><linearGradient
       gradientTransform="translate(-56.38341,-58.700358)"
       y2="52.717197"
       x2="239.85245"
       y1="52.717197"
       x1="204.39697"
       gradientUnits="userSpaceOnUse"
       id="linearGradient4072"
       xlink:href="#linearGradient970"
       inkscape:collect="always" /></defs><style
     type="text/css"
     id="style3">
	.st0{fill:#EBEBEB;stroke:#00FFCC;stroke-width:0.6803;stroke-miterlimit:2.2361;}
	.st1{fill:#EBEBEB;stroke:#00FFCC;stroke-width:0.8079;stroke-miterlimit:2.2361;}
	.st2{fill:#EBEBEB;stroke:#00FFCC;stroke-width:0.12;}
	.st3{fill:#EBEBEB;stroke:#00FFCC;stroke-width:0.6566;}
	.st4{fill:#0000FF;fill-opacity:0;}
	.st5{fill:#EAEAEA;stroke:#00FFCC;stroke-width:0.558;stroke-linecap:round;stroke-linejoin:round;}
	.st6{fill:#FFFFFF;stroke:#000000;stroke-width:0.2593;}
	.st7{fill:#EBEBEB;stroke:#00FFCC;stroke-width:0.4745;stroke-linecap:round;stroke-linejoin:round;}
	.st8{fill:#FFFFFF;stroke:#000000;stroke-width:0.2903;}
	.st9{fill:#EAEAEA;stroke:#00FFCC;stroke-width:0.5284;stroke-linecap:round;}
	.st10{fill:#FFFFFF;stroke:#000000;stroke-width:0.3161;}
	.st11{fill:#EBEBEB;stroke:#00FFCC;stroke-width:0.5;stroke-linecap:round;stroke-linejoin:round;}
	.st12{fill:#FFFFFF;stroke:#000000;stroke-width:0.4755;}
	.st13{fill:#EBEBEB;stroke:#00FFCC;stroke-width:0.75;stroke-linecap:round;stroke-linejoin:round;}
	.st14{fill:#FFFFFF;stroke:#000000;stroke-width:0.4641;}
	.st15{fill:none;stroke:#00FFCC;stroke-width:1.3413;}
	.st16{fill:#EBEBEB;stroke:#00FFCC;stroke-width:0.6747;stroke-linecap:round;stroke-linejoin:round;}
	.st17{fill:#FFFFFF;stroke:#000000;stroke-width:0.4663;}
</style><sodipodi:namedview
     bordercolor="#666666"
     borderopacity="1"
     gridtolerance="10"
     guidetolerance="10"
     id="namedview31"
     inkscape:current-layer="template"
     inkscape:cx="566.4648"
     inkscape:cy="547.98617"
     inkscape:pageopacity="0"
     inkscape:pageshadow="2"
     inkscape:window-height="773"
     inkscape:window-maximized="1"
     inkscape:window-width="1276"
     inkscape:window-x="0"
     inkscape:window-y="23"
     inkscape:zoom="1.8427436"
     objecttolerance="10"
     pagecolor="#ffffff"
     showgrid="false"
     showguides="true"
     inkscape:guide-bbox="true"
     inkscape:snap-bbox="true"
     inkscape:bbox-paths="true"
     inkscape:bbox-nodes="true"
     inkscape:snap-bbox-edge-midpoints="true"
     inkscape:snap-bbox-midpoints="true"
     inkscape:object-paths="true"
     inkscape:snap-intersection-paths="true"
     inkscape:snap-global="true"
     fit-margin-top="0"
     fit-margin-left="0"
     fit-margin-right="0"
     fit-margin-bottom="0"><sodipodi:guide
       orientation="0,1"
       position="836.16791,482.98184"
       id="guide6033"
       inkscape:locked="false" /><sodipodi:guide
       orientation="0,1"
       position="389.09714,379.1203"
       id="guide6035"
       inkscape:locked="false" /><sodipodi:guide
       orientation="0,1"
       position="975.9613,459.06977"
       id="guide6217"
       inkscape:locked="false" /><sodipodi:guide
       orientation="0,1"
       position="975.9613,399.49583"
       id="guide6219"
       inkscape:locked="false" /><sodipodi:guide
       orientation="0,1"
       position="648.1393,505.91769"
       id="guide6446"
       inkscape:locked="false" /></sodipodi:namedview><g
     id="template"
     inkscape:groupmode="layer"
     inkscape:label="ootest"
     transform="translate(446.2952,500.01912)"><path
       id="path5954"
       inkscape:flatsided="false"
       inkscape:randomized="0"
       inkscape:rounded="0"
       sodipodi:arg1="0.92010848"
       sodipodi:arg2="1.4437073"
       sodipodi:cx="129.58116"
       sodipodi:cy="-358.90054"
       sodipodi:r1="152.98824"
       sodipodi:r2="76.494118"
       sodipodi:sides="6"
       sodipodi:type="star"
       class="st4"
       d="m 222.25131,-237.1728 -82.97473,-45.85055 -68.779659,65.24138 -1.779632,-94.7835 -90.89052,-26.94424 81.195105,-48.93296 -22.110865,-92.18561 82.974741,45.85054 68.77965,-65.24138 1.77963,94.7835 90.89052,26.94424 -81.1951,48.93296 z"
       style="fill:#0000ff;fill-opacity:0"
       transform="matrix(0.8,0,0,0.8,98.171643,-230.73836)" /><g
       id="flowRoot4207"
       transform="matrix(0.8,0,0,0.8,98.171643,-230.73836)" /><g
       id="flowRoot4187"
       transform="matrix(0.60000002,0,0,-0.60000002,98.171643,-44.338353)" /><g
       id="flowRoot4198"
       transform="matrix(0.8,0,0,0.8,98.171643,-230.73836)" /><circle
       style="color:#000000;fill:url(#radialGradient892);fill-opacity:1;fill-rule:evenodd;stroke:none;visibility:visible;display:inline;overflow:visible;enable-background:accumulate"
       id="Page_web2"
       cx="350.45462"
       cy="149.28711"
       r="22.519884"
       inkscape:label="#path876"
       sodipodi:cx="350.45462"
       sodipodi:cy="149.28711"
       sodipodi:rx="22.519884"
       sodipodi:ry="22.519884"
       transform="matrix(1.551333,0,0,1.551333,-211.86472,-425.21748)"><title
         id="title68"
         style="fill-opacity:1">template</title></circle><circle
       inkscape:label="#path876"
       r="22.519884"
       cy="149.64172"
       cx="288.7525"
       id="Sites_satellites"
       style="color:#000000;fill:url(#radialGradient109);fill-opacity:1;fill-rule:evenodd;stroke:#00ff00;stroke-width:0;stroke-linecap:round;stroke-linejoin:bevel;stroke-miterlimit:4;stroke-opacity:1;stroke-dasharray:none;stroke-dashoffset:0;visibility:visible;display:inline;overflow:visible;enable-background:accumulate"
       sodipodi:cx="288.7525"
       sodipodi:cy="149.64172"
       sodipodi:rx="22.519884"
       sodipodi:ry="22.519884"
       transform="matrix(1.0479368,0,0,1.0479368,-58.216174,-349.67017)"><title
         id="title103"
         style="fill-opacity:1">template</title></circle><path
       sodipodi:type="arc"
       style="fill:#ffffff;fill-opacity:1;stroke:#020202;stroke-width:7.68355083;stroke-miterlimit:4;stroke-opacity:1;stroke-dasharray:none;marker-start:none"
       id="Main"
       sodipodi:cx="116.73087"
       sodipodi:cy="40.264759"
       sodipodi:rx="19.208878"
       sodipodi:ry="19.208878"
       d="M 135.93975,40.264759 A 19.208878,19.208878 0 0 1 116.73087,59.473637 19.208878,19.208878 0 0 1 97.521996,40.264759 19.208878,19.208878 0 0 1 116.73087,21.055882 19.208878,19.208878 0 0 1 135.93975,40.264759 Z"
       transform="matrix(0.21691359,0,0,0.21691359,91.331306,-219.37744)"
       inkscape:label="#path8162" /><g
       id="Cours_de_soutien_specifique"
       style="fill:#ffffff;fill-opacity:0.99615389;stroke:#020002;stroke-opacity:0.99615389"
       transform="matrix(0.61811859,0,0,0.61811859,-34.071222,-27.183694)"><path
         transform="translate(-446.2952,-500.01912)"
         id="path6358"
         d="m 356.1875,401.09375 c -8.05454,0 -14.59375,6.53921 -14.59375,14.59375 0,8.05454 6.53921,14.5625 14.59375,14.5625 8.05454,0 14.5625,-6.50796 14.5625,-14.5625 0,-8.05454 -6.50796,-14.59375 -14.5625,-14.59375 z"
         style="fill:#ffffff;fill-opacity:0.99615389;stroke:#020002;stroke-width:3.19999981;stroke-linejoin:round;stroke-miterlimit:4;stroke-opacity:0.99615389;stroke-dasharray:none;marker-start:none"
         inkscape:connector-curvature="0" /><path
         transform="translate(-446.2952,-500.01912)"
         id="path6329"
         d="m 356.3125,413.9375 c -0.44744,0 -0.86303,0.17553 -1.15625,0.46875 -0.29322,0.29322 -0.46875,0.70881 -0.46875,1.15625 0,0.44744 0.17553,0.83178 0.46875,1.125 0.29322,0.29322 0.70881,0.46875 1.15625,0.46875 0.44744,0 0.83178,-0.17553 1.125,-0.46875 0.29322,-0.29322 0.46875,-0.67756 0.46875,-1.125 0,-0.44744 -0.17553,-0.86303 -0.46875,-1.15625 -0.29322,-0.29322 -0.67756,-0.46875 -1.125,-0.46875 z"
         style="fill:#ffffff;fill-opacity:0.99615389;stroke:#020002;stroke-width:3.19999981;stroke-linejoin:round;stroke-miterlimit:4;stroke-opacity:0.99615389;stroke-dasharray:none;marker-start:none"
         inkscape:connector-curvature="0" /><path
         transform="translate(-446.2952,-500.01912)"
         id="path6327"
         d="m 356.3125,413.9375 c 0.44744,0 0.83178,0.17553 1.125,0.46875 0.29322,0.29322 0.46875,0.70881 0.46875,1.15625 0,0.44744 -0.17553,0.83178 -0.46875,1.125 -0.29322,0.29322 -0.67756,0.46875 -1.125,0.46875 -0.44744,0 -0.86303,-0.17553 -1.15625,-0.46875 -0.29322,-0.29322 -0.46875,-0.67756 -0.46875,-1.125 0,-0.44744 0.17553,-0.86303 0.46875,-1.15625 0.29322,-0.29322 0.70881,-0.46875 1.15625,-0.46875 z"
         style="fill:#ffffff;fill-opacity:0.99615389;stroke:#020002;stroke-width:3.19999981;stroke-linejoin:round;stroke-miterlimit:4;stroke-opacity:0.99615389;stroke-dasharray:none;marker-start:none"
         inkscape:connector-curvature="0" /><path
         transform="translate(-446.2952,-500.01912)"
         id="path6324"
         d="m 356.3125,413.9375 c -0.44744,0 -0.86303,0.17553 -1.15625,0.46875 -0.29322,0.29322 -0.46875,0.70881 -0.46875,1.15625 0,0.44744 0.17553,0.83178 0.46875,1.125 0.29322,0.29322 0.70881,0.46875 1.15625,0.46875 0.44744,0 0.83178,-0.17553 1.125,-0.46875 0.29322,-0.29322 0.46875,-0.67756 0.46875,-1.125 0,-0.44744 -0.17553,-0.86303 -0.46875,-1.15625 -0.29322,-0.29322 -0.67756,-0.46875 -1.125,-0.46875 z"
         style="fill:#ffffff;fill-opacity:0.99615389;stroke:#020002;stroke-width:3.19999981;stroke-linejoin:round;stroke-miterlimit:4;stroke-opacity:0.99615389;stroke-dasharray:none;marker-start:none"
         inkscape:connector-curvature="0" /></g><path
       style="fill:#ffffff;fill-opacity:1;stroke:#000000;stroke-width:4.00255919;stroke-linejoin:round;stroke-miterlimit:4;stroke-opacity:1;stroke-dasharray:none;marker-start:none"
       d="m -90.524198,-40.159594 c -0.276318,0 -0.55176,0.05311 -0.791188,0.154378 -0.239428,0.101272 -0.455731,0.24346 -0.63681,0.42454 -0.18108,0.181079 -0.323268,0.397382 -0.42454,0.63681 -0.101272,0.239428 -0.154379,0.495573 -0.154379,0.771891 0,0.276318 0.05311,0.55176 0.154379,0.791188 0.101272,0.239428 0.24346,0.455731 0.42454,0.63681 0.181079,0.18108 0.397382,0.323268 0.63681,0.42454 0.239428,0.101272 0.51487,0.154379 0.791188,0.154379 0.276318,0 0.532463,-0.05311 0.771891,-0.154379 0.239428,-0.101272 0.455731,-0.24346 0.63681,-0.42454 0.18108,-0.181079 0.323268,-0.397382 0.42454,-0.63681 0.101272,-0.239428 0.154378,-0.51487 0.154378,-0.791188 0,-0.276318 -0.05311,-0.532463 -0.154378,-0.771891 -0.101272,-0.239428 -0.24346,-0.455731 -0.42454,-0.63681 -0.181079,-0.18108 -0.397382,-0.323268 -0.63681,-0.42454 -0.239428,-0.101272 -0.495573,-0.154378 -0.771891,-0.154378 z"
       id="path6365"
       inkscape:connector-curvature="0" /><g
       id="Cours_de_soutien_a_l'orientation"
       style="stroke:#000000;stroke-opacity:0.99615389"
       transform="matrix(0.61751278,0,0,0.61751278,-35.846405,-11.819389)"><path
         transform="translate(-446.2952,-500.01912)"
         id="path8166"
         d="m 357.75,444.40625 c -7.15954,0 -12.96875,5.77796 -12.96875,12.9375 0,7.15954 5.80921,12.96875 12.96875,12.96875 7.15954,0 12.9375,-5.80921 12.9375,-12.96875 0,-7.15954 -5.77796,-12.9375 -12.9375,-12.9375 z"
         style="fill:#ffffff;fill-opacity:1;stroke:#000000;stroke-width:6.48174286;stroke-linejoin:round;stroke-miterlimit:4;stroke-opacity:0.99615389;stroke-dasharray:none;marker-start:none"
         inkscape:connector-curvature="0" /><path
         transform="translate(-446.2952,-500.01912)"
         id="path6363"
         d="m 357.75,454.125 c 0.44747,0 0.86227,0.086 1.25,0.25 0.38773,0.164 0.73801,0.39426 1.03125,0.6875 0.29324,0.29324 0.5235,0.64352 0.6875,1.03125 0.164,0.38773 0.25,0.80253 0.25,1.25 0,0.44747 -0.086,0.89352 -0.25,1.28125 -0.164,0.38773 -0.39426,0.73801 -0.6875,1.03125 -0.29324,0.29324 -0.64352,0.5235 -1.03125,0.6875 -0.38773,0.164 -0.80253,0.25 -1.25,0.25 -0.44747,0 -0.89352,-0.086 -1.28125,-0.25 -0.38773,-0.164 -0.73801,-0.39426 -1.03125,-0.6875 -0.29324,-0.29324 -0.5235,-0.64352 -0.6875,-1.03125 -0.164,-0.38773 -0.25,-0.83378 -0.25,-1.28125 0,-0.44747 0.086,-0.86227 0.25,-1.25 0.164,-0.38773 0.39426,-0.73801 0.6875,-1.03125 0.29324,-0.29324 0.64352,-0.5235 1.03125,-0.6875 0.38773,-0.164 0.83378,-0.25 1.28125,-0.25 z"
         style="fill:#ffffff;fill-opacity:1;stroke:#000000;stroke-width:6.48174286;stroke-linejoin:round;stroke-miterlimit:4;stroke-opacity:0.99615389;stroke-dasharray:none;marker-start:none"
         inkscape:connector-curvature="0" /></g><g
       id="Ateliers_pluridisciplinaires"><path
         transform="matrix(0.36441483,0,0,0.36441483,-132.69908,28.796006)"
         d="M 135.93975,40.264759 A 19.208878,19.208878 0 0 1 116.73087,59.473637 19.208878,19.208878 0 0 1 97.521996,40.264759 19.208878,19.208878 0 0 1 116.73087,21.055882 19.208878,19.208878 0 0 1 135.93975,40.264759 Z"
         sodipodi:ry="19.208878"
         sodipodi:rx="19.208878"
         sodipodi:cy="40.264759"
         sodipodi:cx="116.73087"
         id="path6780"
         style="fill:#ffffff;fill-opacity:1;stroke:#010001;stroke-width:16.4647522;stroke-linejoin:round;stroke-miterlimit:4;stroke-opacity:1;stroke-dasharray:none;marker-start:none"
         sodipodi:type="arc" /><g
         id="g8172"
         transform="matrix(2.1333332,0,0,-2.1333332,13.499857,367.42774)"
         style="fill:#020002;fill-opacity:0.99615389;stroke:#030003;stroke-opacity:0.98846154"><path
           transform="matrix(0.05856667,0,0,-0.05856667,-55.427399,154.21379)"
           d="M 135.93975,40.264759 A 19.208878,19.208878 0 0 1 116.73087,59.473637 19.208878,19.208878 0 0 1 97.521996,40.264759 19.208878,19.208878 0 0 1 116.73087,21.055882 19.208878,19.208878 0 0 1 135.93975,40.264759 Z"
           sodipodi:ry="19.208878"
           sodipodi:rx="19.208878"
           sodipodi:cy="40.264759"
           sodipodi:cx="116.73087"
           id="path8174"
           style="fill:#020002;fill-opacity:0.99615389;stroke:#030003;stroke-width:0;stroke-linejoin:round;stroke-miterlimit:4;stroke-opacity:0.98846154;stroke-dasharray:none;marker-start:none"
           sodipodi:type="arc" /></g></g><g
       id="Cours_techniques"
       transform="matrix(0.62716047,0,0,-0.62716047,-110.50843,-5.5775975)"
       inkscape:label="#g3142"
       style="fill:#ffffff;fill-opacity:1;stroke:#000000;stroke-opacity:1"><title
         id="title3278">template</title><path
         inkscape:connector-curvature="0"
         id="path87"
         style="fill:#ffffff;fill-opacity:1;stroke:#000000;stroke-width:2.12598443;stroke-linecap:square;stroke-linejoin:bevel;stroke-miterlimit:2.23606801;stroke-opacity:1;stroke-dasharray:none"
         d="m 49.067296,199.32385 c 0,-8.21904 -6.662847,-14.88189 -14.881888,-14.88189 -8.219041,0 -14.881889,6.66285 -14.881889,14.88189 0,8.21904 6.662848,14.88189 14.881889,14.88189 8.219041,0 14.881888,-6.66285 14.881888,-14.88189 z" /><g
         id="g3119"
         style="fill:#ffffff;fill-opacity:1;stroke:#000000;stroke-opacity:1"><path
           d="m 44.815326,199.32385 c 0,-5.87075 -4.759174,-10.62992 -10.629918,-10.62992 -5.870744,0 -10.629921,4.75917 -10.629921,10.62992 0,5.87074 4.759177,10.62992 10.629921,10.62992 5.870744,0 10.629918,-4.75918 10.629918,-10.62992 z"
           style="fill:#ffffff;fill-opacity:1;stroke:#000000;stroke-width:2.12598443;stroke-linecap:square;stroke-linejoin:bevel;stroke-miterlimit:2.23606801;stroke-opacity:1;stroke-dasharray:none"
           id="path85"
           inkscape:connector-curvature="0" /></g></g><path
       d="m -78.185969,-179.22329 c 0,5.19555 -4.211825,9.40737 -9.407373,9.40737 -5.195549,0 -9.407369,-4.21182 -9.407369,-9.40737 0,-5.19555 4.21182,-9.40737 9.407369,-9.40737 5.195548,0 9.407373,4.21182 9.407373,9.40737 z"
       style="fill:#ffffff;fill-opacity:1;stroke:#010001;stroke-width:1.18525434;stroke-linecap:butt;stroke-linejoin:round;stroke-miterlimit:2.23606801;stroke-opacity:1;stroke-dasharray:3.55576297, 3.55576297;stroke-dashoffset:0;marker-start:none;marker-mid:none;marker-end:none"
       id="Cours_theoriques"
       inkscape:connector-curvature="0"
       inkscape:label="#path87-1"
       mask="none" /><g
       id="Orientations"
       style="fill:#ffffff;fill-opacity:1;stroke:#000000;stroke-opacity:0.99615389"
       transform="matrix(0.61811859,0,0,0.61811859,-35.898064,4.8566988)"><path
         id="Orientations-0"
         d="m -87.8577,-14.01912 c -8.05454,0 -14.59375,6.50796 -14.59375,14.5625 0,8.05454 6.53921,14.59375 14.59375,14.59375 8.05454,0 14.59375,-6.53921 14.59375,-14.59375 0,-8.05454 -6.53921,-14.5625 -14.59375,-14.5625 z"
         style="fill:#ffffff;fill-opacity:1;stroke:#000000;stroke-width:3.19999981;stroke-linejoin:round;stroke-miterlimit:4;stroke-opacity:0.99615389;stroke-dasharray:none;marker-start:none"
         inkscape:connector-curvature="0" /><path
         id="path6386"
         d="m -87.7327,-7.603495 c -1.108176,0 -2.164768,0.243856 -3.125,0.65 -0.960232,0.406144 -1.823784,0.998784 -2.55,1.725 -0.726216,0.726216 -1.318856,1.589768 -1.725,2.55 -0.406144,0.960232 -0.625,2.016824 -0.625,3.125 0,1.108176 0.218856,2.139768 0.625,3.1 0.406144,0.960232 0.998784,1.848784 1.725,2.575 0.726216,0.726216 1.589768,1.293856 2.55,1.7 0.960232,0.406144 2.016824,0.65 3.125,0.65 1.108176,0 2.164768,-0.243856 3.125,-0.65 0.960232,-0.406144 1.823784,-0.973784 2.55,-1.7 0.726216,-0.726216 1.318856,-1.614768 1.725,-2.575 0.406144,-0.960232 0.625,-1.991824 0.625,-3.1 0,-1.108176 -0.218856,-2.164768 -0.625,-3.125 -0.406144,-0.960232 -0.998784,-1.823784 -1.725,-2.55 -0.726216,-0.726216 -1.589768,-1.318856 -2.55,-1.725 -0.960232,-0.406144 -2.016824,-0.65 -3.125,-0.65 z"
         style="fill:#ffffff;fill-opacity:1;stroke:#000000;stroke-width:2.55999994;stroke-linejoin:round;stroke-miterlimit:4;stroke-opacity:0.99615389;stroke-dasharray:none;marker-start:none"
         inkscape:connector-curvature="0" /></g><rect
       style="fill:url(#linearGradient6519);fill-opacity:1.0;stroke:none"
       id="Actualites"
       width="35.455479"
       height="35.550571"
       x="204.39697"
       y="34.94191"
       transform="matrix(0.73081608,-0.68257444,0.74950454,0.6619992,0,0)"
       inkscape:label="#rect7871" /><path
       style="fill:#000000;fill-opacity:0.98863639;stroke:none"
       d="m 219.46875,318.09375 -14.53125,14.53125 3.5625,3.5625 14.53125,-14.53125 -3.5625,-3.5625 z"
       transform="translate(-446.2952,-500.01912)"
       id="Equipe_administrative"
       inkscape:connector-curvature="0" /><g
       id="Conseil_de_gestion_pedagogique"
       inkscape:label="#g111"
       style="stroke:#020202;stroke-width:2.55118108;stroke-miterlimit:4;stroke-opacity:1;stroke-dasharray:none"
       transform="matrix(1.1759259,0,0,-1.1759259,-357.87023,-270.44833)"><title
         id="title119">template</title><path
         inkscape:connector-curvature="0"
         id="path99"
         style="fill:none;stroke:#020202;stroke-width:2.55118108;stroke-linecap:butt;stroke-linejoin:miter;stroke-miterlimit:4;stroke-opacity:1;stroke-dasharray:none"
         d="m 127.81353,6.6138639 h 12.75591" /><path
         inkscape:connector-curvature="0"
         id="path101"
         style="fill:none;stroke:#020202;stroke-width:2.55118108;stroke-linecap:butt;stroke-linejoin:miter;stroke-miterlimit:4;stroke-opacity:1;stroke-dasharray:none"
         d="M 134.19148,12.991816 V 0.23591129" /></g><g
       id="Conseil_etudiant"
       style="fill:#010101;fill-opacity:1"
       transform="matrix(0.8,0,0,0.8,7.0585629,-56.922637)"><path
         inkscape:connector-curvature="0"
         transform="matrix(8.6524332,0.32466414,-0.33135408,8.8307227,-375.33136,-293.47357)"
         style="fill:#010101;fill-opacity:1;stroke:none"
         d="m 9.792,8.0719995 c 0,0.2485282 -0.2014719,0.45 -0.45,0.45 -0.2485281,0 -0.45,-0.2014718 -0.45,-0.45 0,-0.2485281 0.2014719,-0.4499999 0.45,-0.4499999 0.2485281,0 0.45,0.2014718 0.45,0.4499999 z"
         id="circle5713" /><path
         inkscape:connector-curvature="0"
         transform="matrix(8.6524332,0.32466414,-0.33135408,8.8307227,-375.33136,-293.47357)"
         style="fill:#010101;fill-opacity:1;stroke:none"
         d="m 8.6560003,9.3149996 c 0,0.2485281 -0.2014718,0.45 -0.45,0.45 -0.2485281,0 -0.45,-0.2014719 -0.45,-0.45 0,-0.2485282 0.2014719,-0.45 0.45,-0.45 0.2485282,0 0.45,0.2014718 0.45,0.45 z"
         id="circle5715" /><path
         inkscape:connector-curvature="0"
         transform="matrix(8.6524332,0.32466414,-0.33135408,8.8307227,-375.33136,-293.47357)"
         style="fill:#010101;fill-opacity:1;stroke:none"
         d="m 10.132,9.4750004 c 0,0.2485281 -0.2014717,0.45 -0.4499998,0.45 -0.2485282,0 -0.45,-0.2014719 -0.45,-0.45 0,-0.2485281 0.2014718,-0.45 0.45,-0.45 0.2485281,0 0.4499998,0.2014719 0.4499998,0.45 z"
         id="circle5717" /></g><path
       sodipodi:type="star"
       style="fill:#ffffff;fill-opacity:1;stroke:#020202;stroke-width:3.7960647;stroke-miterlimit:4;stroke-opacity:1;stroke-dasharray:none"
       id="Enseignants"
       sodipodi:sides="3"
       sodipodi:cx="271.14069"
       sodipodi:cy="237.82393"
       sodipodi:r1="26.483795"
       sodipodi:r2="13.241897"
       sodipodi:arg1="0.52606642"
       sodipodi:arg2="1.573264"
       inkscape:flatsided="true"
       inkscape:rounded="0"
       inkscape:randomized="0"
       d="m 294.04358,251.12238 -45.87114,-0.11319 23.0336,-39.66898 z"
       transform="matrix(0.42148912,0,0,0.42148912,-354.47469,-208.12397)"
       inkscape:transform-center-x="0.0058150688"
       inkscape:transform-center-y="1.1722774"
       inkscape:label="#path3225-6-7-7" /><rect
       style="fill:#ffffff;fill-opacity:0;stroke:none"
       id="rect6467"
       width="1076.6689"
       height="633.11603"
       x="-43.364109"
       y="120.72746"
       transform="translate(-446.2952,-500.01912)" /><rect
       style="fill:#ffffff;fill-opacity:1;stroke:none"
       x="-307.66473"
       y="347.57245"
       width="1.5057341"
       height="24.590427"
       id="rect6521-6"
       transform="matrix(0.88056764,-0.47392049,-0.47392046,-0.88056766,0,0)" /><rect
       style="fill:url(#linearGradient4072);fill-opacity:1;stroke:none"
       id="Page_web"
       width="35.455479"
       height="35.550571"
       x="148.01357"
       y="-23.758476"
       transform="matrix(0.73081608,-0.68257444,0.74950454,0.6619992,0,0)"
       inkscape:label="#rect7871" /></g><g
     inkscape:groupmode="layer"
     id="layer1"
     inkscape:label="Calque"
     style="display:none"><text
   xml:space="preserve"
   style="font-style:normal;font-variant:normal;font-weight:normal;font-stretch:normal;line-height:0%;font-family:'Univers Else';-inkscape-font-specification:'Univers Else';text-align:start;letter-spacing:0px;word-spacing:0px;writing-mode:lr-tb;text-anchor:start;fill:#000000;fill-opacity:1;stroke:none"
   x="386.37805"
   y="509.1626"
   id="text6116"><tspan
     sodipodi:role="line"
     id="tspan6118"
     x="386.37805"
     y="509.1626"
     style="font-size:9.60000038px;line-height:1.25">orientations</tspan></text>

<text
   xml:space="preserve"
   style="font-style:normal;font-variant:normal;font-weight:normal;font-stretch:normal;line-height:0%;font-family:'Univers Else';-inkscape-font-specification:'Univers Else';text-align:start;letter-spacing:0px;word-spacing:0px;writing-mode:lr-tb;text-anchor:start;fill:#000000;fill-opacity:1;stroke:none"
   x="390.67645"
   y="546.43085"
   id="text6116-3"><tspan
     sodipodi:role="line"
     id="tspan6118-3"
     x="390.67645"
     y="546.43085"
     style="font-size:9.60000038px;line-height:1.25">Ateliers_pluridisciplinaires</tspan></text>

<text
   xml:space="preserve"
   style="font-style:normal;font-variant:normal;font-weight:normal;font-stretch:normal;line-height:0%;font-family:'Univers Else';-inkscape-font-specification:'Univers Else';text-align:start;letter-spacing:0px;word-spacing:0px;writing-mode:lr-tb;text-anchor:start;fill:#000000;fill-opacity:1;stroke:none"
   x="389.80933"
   y="429.99548"
   id="text6651"
   inkscape:label="#text6116-5-2"><tspan
     sodipodi:role="line"
     id="tspan6118-4-8"
     x="389.80933"
     y="429.99548"
     style="font-size:9.60000038px;line-height:1.25">Cours de soutien spécifique</tspan></text>

<text
   xml:space="preserve"
   style="font-style:normal;font-variant:normal;font-weight:normal;font-stretch:normal;line-height:0%;font-family:'Univers Else';-inkscape-font-specification:'Univers Else';text-align:start;letter-spacing:0px;word-spacing:0px;writing-mode:lr-tb;text-anchor:start;fill:#000000;fill-opacity:1;stroke:none"
   x="392.96164"
   y="323.3179"
   id="text6116-5-2-74"><tspan
     sodipodi:role="line"
     id="tspan6118-4-8-6"
     x="392.96164"
     y="323.3179"
     style="font-size:9.60000038px;line-height:1.25">cours théoriques</tspan></text>

<text
   xml:space="preserve"
   style="font-style:normal;font-variant:normal;font-weight:normal;font-stretch:normal;line-height:0%;font-family:'Univers Else';-inkscape-font-specification:'Univers Else';text-align:start;letter-spacing:0px;word-spacing:0px;writing-mode:lr-tb;text-anchor:start;fill:#000000;fill-opacity:1;stroke:none"
   x="392.19556"
   y="364.4317"
   id="text6116-5-2-74-0"><tspan
     sodipodi:role="line"
     id="tspan6118-4-8-6-9"
     x="392.19556"
     y="364.4317"
     style="font-size:9.60000038px;line-height:1.25">cours techniques</tspan></text>

<text
   xml:space="preserve"
   style="font-style:normal;font-variant:normal;font-weight:normal;font-stretch:normal;line-height:0%;font-family:'Univers Else';-inkscape-font-specification:'Univers Else';text-align:start;letter-spacing:0px;word-spacing:0px;writing-mode:lr-tb;text-anchor:start;fill:#000000;fill-opacity:1;stroke:none"
   x="624.71429"
   y="426.00394"
   id="text6116-5-2-74-1"><tspan
     sodipodi:role="line"
     id="tspan6118-4-8-6-6"
     x="624.71429"
     y="426.00394"
     style="font-size:9.60000038px;line-height:1.25">actualités</tspan></text>

<text
   xml:space="preserve"
   style="font-style:normal;font-variant:normal;font-weight:normal;font-stretch:normal;line-height:0%;font-family:'Univers Else';-inkscape-font-specification:'Univers Else';text-align:start;letter-spacing:0px;word-spacing:0px;writing-mode:lr-tb;text-anchor:start;fill:#000000;fill-opacity:1;stroke:none"
   x="386.845"
   y="466.1058"
   id="text6116-5"><tspan
     sodipodi:role="line"
     id="tspan6118-4"
     x="386.845"
     y="466.1058"
     style="font-size:9.60000038px;line-height:1.25">Cours de soutien à l'orientation</tspan></text>

<text
   xml:space="preserve"
   style="font-style:normal;font-variant:normal;font-weight:normal;font-stretch:normal;line-height:0%;font-family:'Univers Else';-inkscape-font-specification:'Univers Else';text-align:start;letter-spacing:0px;word-spacing:0px;writing-mode:lr-tb;text-anchor:start;fill:#00000c;fill-opacity:1;stroke:none"
   x="553.46967"
   y="310.37476"
   id="text3293"><tspan
     sodipodi:role="line"
     id="tspan3295"
     x="553.46967"
     y="310.37476"
     style="font-size:9.60000038px;line-height:1.25">Main</tspan></text>

<text
   xml:space="preserve"
   style="font-style:normal;font-variant:normal;font-weight:normal;font-stretch:normal;line-height:0%;font-family:'Univers Else';-inkscape-font-specification:'Univers Else';text-align:start;letter-spacing:0px;word-spacing:0px;writing-mode:lr-tb;text-anchor:start;fill:#000000;fill-opacity:1;stroke:none"
   x="189.82669"
   y="357.34155"
   id="text3430"><tspan
     sodipodi:role="line"
     id="tspan3432"
     x="189.82669"
     y="357.34155"
     style="font-size:9.60000038px;line-height:1.25">Equipe_administrative</tspan></text>

<text
   xml:space="preserve"
   style="font-style:normal;font-variant:normal;font-weight:normal;font-stretch:normal;line-height:0%;font-family:'Univers Else';-inkscape-font-specification:'Univers Else';text-align:start;letter-spacing:0px;word-spacing:0px;writing-mode:lr-tb;text-anchor:start;fill:#000000;fill-opacity:1;stroke:none"
   x="187.72409"
   y="416.9155"
   id="text6714"><tspan
     sodipodi:role="line"
     id="tspan3436"
     x="187.72409"
     y="416.9155"
     style="font-size:9.60000038px;line-height:1.25">Enseignants‏‎</tspan></text>

<text
   xml:space="preserve"
   style="font-style:normal;font-variant:normal;font-weight:normal;font-stretch:normal;line-height:0%;font-family:'Univers Else';-inkscape-font-specification:'Univers Else';text-align:start;letter-spacing:0px;word-spacing:0px;writing-mode:lr-tb;text-anchor:start;fill:#000000;fill-opacity:1;stroke:none"
   x="194.03191"
   y="300.57111"
   id="text3438"><tspan
     sodipodi:role="line"
     id="tspan3440"
     x="194.03191"
     y="300.57111"
     style="font-size:9.60000038px;line-height:1.25">Conseil_etudiant</tspan></text>

<text
   xml:space="preserve"
   style="font-style:normal;font-variant:normal;font-weight:normal;font-stretch:normal;line-height:0%;font-family:'Univers Else';-inkscape-font-specification:'Univers Else';text-align:start;letter-spacing:0px;word-spacing:0px;writing-mode:lr-tb;text-anchor:start;fill:#000000;fill-opacity:1;stroke:none"
   x="186.89163"
   y="245.23796"
   id="text3442"><tspan
     sodipodi:role="line"
     id="tspan3444"
     x="186.89163"
     y="245.23796"
     style="font-size:9.60000038px;line-height:1.25">Conseil_de_gestion_pedagogique</tspan></text>

</g></svg>