<?xml version="1.0" encoding="UTF-8" standalone="no"?>
<svg
   xmlns:dc="http://purl.org/dc/elements/1.1/"
   xmlns:cc="http://creativecommons.org/ns#"
   xmlns:rdf="http://www.w3.org/1999/02/22-rdf-syntax-ns#"
   xmlns:svg="http://www.w3.org/2000/svg"
   xmlns="http://www.w3.org/2000/svg"
   xmlns:sodipodi="http://sodipodi.sourceforge.net/DTD/sodipodi-0.dtd"
   xmlns:inkscape="http://www.inkscape.org/namespaces/inkscape"
   id="svg878"
   version="1.1"
   viewBox="0 0 5.2967773 5.2916666"
   height="5.2916665mm"
   width="5.2967772mm"
   sodipodi:docname="map-Orientations.svg"
   inkscape:version="0.92.2 2405546, 2018-03-11">
  <sodipodi:namedview
     pagecolor="#ffffff"
     bordercolor="#666666"
     borderopacity="1"
     objecttolerance="10"
     gridtolerance="10"
     guidetolerance="10"
     inkscape:pageopacity="0"
     inkscape:pageshadow="2"
     inkscape:window-width="743"
     inkscape:window-height="480"
     id="namedview4480"
     showgrid="false"
     fit-margin-top="0"
     fit-margin-left="0"
     fit-margin-right="0"
     fit-margin-bottom="0"
     inkscape:zoom="4.5446106"
     inkscape:cx="10.009659"
     inkscape:cy="9.9999998"
     inkscape:window-x="408"
     inkscape:window-y="147"
     inkscape:window-maximized="0"
     inkscape:current-layer="svg878" />
  <defs
     id="defs872" />
  <metadata
     id="metadata875">
    <rdf:RDF>
      <cc:Work
         rdf:about="">
        <dc:format>image/svg+xml</dc:format>
        <dc:type
           rdf:resource="http://purl.org/dc/dcmitype/StillImage" />
        <dc:title></dc:title>
      </cc:Work>
    </rdf:RDF>
  </metadata>
  <g
     id="Orientations"
     style="fill:#ffffff;fill-opacity:1;stroke:#000000;stroke-opacity:0.99615389"
     transform="matrix(0.16354388,0,0,0.16354388,17.016978,2.5544115)">
    <path
       id="Orientations-0"
       d="m -87.8577,-14.01912 c -8.05454,0 -14.59375,6.50796 -14.59375,14.5625 0,8.05454 6.53921,14.59375 14.59375,14.59375 8.05454,0 14.59375,-6.53921 14.59375,-14.59375 0,-8.05454 -6.53921,-14.5625 -14.59375,-14.5625 z"
       style="fill:#ffffff;fill-opacity:1;stroke:#000000;stroke-width:3.19999981;stroke-linejoin:round;stroke-miterlimit:4;stroke-dasharray:none;stroke-opacity:0.99615389;marker-start:none"
       inkscape:connector-curvature="0" />
    <path
       id="path6386"
       d="m -87.7327,-7.603495 c -1.108176,0 -2.164768,0.243856 -3.125,0.65 -0.960232,0.406144 -1.823784,0.998784 -2.55,1.725 -0.726216,0.726216 -1.318856,1.589768 -1.725,2.55 -0.406144,0.960232 -0.625,2.016824 -0.625,3.125 0,1.108176 0.218856,2.139768 0.625,3.1 0.406144,0.960232 0.998784,1.848784 1.725,2.575 0.726216,0.726216 1.589768,1.293856 2.55,1.7 0.960232,0.406144 2.016824,0.65 3.125,0.65 1.108176,0 2.164768,-0.243856 3.125,-0.65 0.960232,-0.406144 1.823784,-0.973784 2.55,-1.7 0.726216,-0.726216 1.318856,-1.614768 1.725,-2.575 0.406144,-0.960232 0.625,-1.991824 0.625,-3.1 0,-1.108176 -0.218856,-2.164768 -0.625,-3.125 -0.406144,-0.960232 -0.998784,-1.823784 -1.725,-2.55 -0.726216,-0.726216 -1.589768,-1.318856 -2.55,-1.725 -0.960232,-0.406144 -2.016824,-0.65 -3.125,-0.65 z"
       style="fill:#ffffff;fill-opacity:1;stroke:#000000;stroke-width:2.55999994;stroke-linejoin:round;stroke-miterlimit:4;stroke-dasharray:none;stroke-opacity:0.99615389;marker-start:none"
       inkscape:connector-curvature="0" />
  </g>
  <g
     id="Orientations-09"
     style="fill:#ffffff;fill-opacity:1;stroke:#000000;stroke-opacity:0.99615389"
     transform="matrix(0.16354388,0,0,0.16354388,17.016978,2.5544115)">
    <path
       id="Orientations-0-3"
       d="m -87.8577,-14.01912 c -8.05454,0 -14.59375,6.50796 -14.59375,14.5625 0,8.05454 6.53921,14.59375 14.59375,14.59375 8.05454,0 14.59375,-6.53921 14.59375,-14.59375 0,-8.05454 -6.53921,-14.5625 -14.59375,-14.5625 z"
       style="fill:#ffffff;fill-opacity:1;stroke:#000000;stroke-width:3.19999981;stroke-linejoin:round;stroke-miterlimit:4;stroke-dasharray:none;stroke-opacity:0.99615389;marker-start:none"
       inkscape:connector-curvature="0" />
    <path
       id="path6386-6"
       d="m -87.7327,-7.603495 c -1.108176,0 -2.164768,0.243856 -3.125,0.65 -0.960232,0.406144 -1.823784,0.998784 -2.55,1.725 -0.726216,0.726216 -1.318856,1.589768 -1.725,2.55 -0.406144,0.960232 -0.625,2.016824 -0.625,3.125 0,1.108176 0.218856,2.139768 0.625,3.1 0.406144,0.960232 0.998784,1.848784 1.725,2.575 0.726216,0.726216 1.589768,1.293856 2.55,1.7 0.960232,0.406144 2.016824,0.65 3.125,0.65 1.108176,0 2.164768,-0.243856 3.125,-0.65 0.960232,-0.406144 1.823784,-0.973784 2.55,-1.7 0.726216,-0.726216 1.318856,-1.614768 1.725,-2.575 0.406144,-0.960232 0.625,-1.991824 0.625,-3.1 0,-1.108176 -0.218856,-2.164768 -0.625,-3.125 -0.406144,-0.960232 -0.998784,-1.823784 -1.725,-2.55 -0.726216,-0.726216 -1.589768,-1.318856 -2.55,-1.725 -0.960232,-0.406144 -2.016824,-0.65 -3.125,-0.65 z"
       style="fill:#ffffff;fill-opacity:1;stroke:#000000;stroke-width:2.55999994;stroke-linejoin:round;stroke-miterlimit:4;stroke-dasharray:none;stroke-opacity:0.99615389;marker-start:none"
       inkscape:connector-curvature="0" />
  </g>
</svg>
