<?xml version="1.0" encoding="utf-8"?>
<!-- Generator: Adobe Illustrator 19.1.0, SVG Export Plug-In . SVG Version: 6.00 Build 0)  -->
<svg version="1.1"
	 id="svg8" inkscape:export-filename="/home/murtaugh/projects/ERG/m/img/threelines.png" inkscape:version="0.92.1 r15371" sodipodi:docname="threelines.svg" inkscape:export-xdpi="47.939999" xmlns:svg="http://www.w3.org/2000/svg" xmlns:sodipodi="http://sodipodi.sourceforge.net/DTD/sodipodi-0.dtd" xmlns:rdf="http://www.w3.org/1999/02/22-rdf-syntax-ns#" xmlns:inkscape="http://www.inkscape.org/namespaces/inkscape" xmlns:cc="http://creativecommons.org/ns#" xmlns:dc="http://purl.org/dc/elements/1.1/" inkscape:export-ydpi="47.939999"
	 xmlns="http://www.w3.org/2000/svg" xmlns:xlink="http://www.w3.org/1999/xlink" x="0px" y="0px" viewBox="38 -44.7 100 100"
	 style="enable-background:new 38 -44.7 100 100;" xml:space="preserve">
<style type="text/css">
	.st0{fill:#FFFFFF;}
</style>
<sodipodi:namedview  borderopacity="1.0" id="base" bordercolor="#666666" pagecolor="#ffffff" inkscape:zoom="1" inkscape:cx="86.522249" inkscape:cy="3.4292909" showgrid="false" units="px" inkscape:window-maximized="1" inkscape:window-y="27" inkscape:window-x="0" inkscape:window-height="704" inkscape:window-width="1366" inkscape:current-layer="layer1" inkscape:pageshadow="2" inkscape:document-units="mm" inkscape:pageopacity="0.0">
	</sodipodi:namedview>
<sodipodi:namedview  borderopacity="1.0" id="base" bordercolor="#666666" pagecolor="#ffffff" inkscape:zoom="1" inkscape:cx="86.522249" inkscape:cy="3.4292909" showgrid="false" units="px" inkscape:window-maximized="1" inkscape:window-y="27" inkscape:window-x="0" inkscape:window-height="704" inkscape:window-width="1366" inkscape:current-layer="layer1" inkscape:pageshadow="2" inkscape:document-units="mm" inkscape:pageopacity="0.0">
	</sodipodi:namedview>
<g id="_x36_QN0AL.tif">
	<g>
		<path class="st0" d="M105.9-41.9c-17.4,5.6-34.6,11.1-51.9,16.6c0,26.1,0,52.2,0,78.3c22.5,0,44.9,0,67.4,0c0-26.2,0-52.3,0-78.5
			c-5.2,0-10.3,0-15.6,0C105.9-31,105.9-36.4,105.9-41.9z"/>
		<path d="M105.9-41.9c0,5.5,0,10.9,0,16.4c5.2,0,10.4,0,15.6,0c0,26.2,0,52.4,0,78.5c-22.5,0-44.9,0-67.4,0c0-26.2,0-52.3,0-78.3
			C71.3-30.8,88.6-36.4,105.9-41.9z M58.1,49c19.8,0,39.6,0,59.4,0c0-23.5,0-47,0-70.4c-19.8,0-39.6,0-59.4,0
			C58.1,2.1,58.1,25.5,58.1,49z M68.1-25.7c0,0.1,0,0.1,0.1,0.2c11,0,22,0,33,0c0.6,0,0.8-0.2,0.8-0.8c0-3.2,0-6.3,0-9.5
			c0-0.1,0-0.3-0.1-0.5C90.6-32.7,79.3-29.2,68.1-25.7z"/>
		<path class="st0" d="M58.1,49c0-23.5,0-46.9,0-70.4c19.8,0,39.6,0,59.4,0c0,23.4,0,46.9,0,70.4C97.7,49,77.9,49,58.1,49z
			 M110.1,17.4c0-1.3,0-2.6,0-3.9c-14.9,0-29.7,0-44.5,0c0,1.3,0,2.6,0,3.9C80.4,17.4,95.2,17.4,110.1,17.4z M110.1,25.3
			c-14.9,0-29.7,0-44.5,0c0,1.4,0,2.6,0,3.9c14.9,0,29.7,0,44.5,0C110.1,27.9,110.1,26.6,110.1,25.3z M110.1,37.3
			c-14.9,0-29.7,0-44.6,0c0,1.3,0,2.6,0,3.9c14.9,0,29.7,0,44.6,0C110.1,39.9,110.1,38.6,110.1,37.3z M66.6-1.7c0.1,0,0.1,0,0.2-0.1
			c0.8,1.6,1.6,3.2,2.4,4.7c0.2,0.5,0.5,0.9,1.2,0.8c0.6,0,0.8-0.4,1.1-0.8c0.8-1.6,1.6-3.2,2.4-4.7c0.1,0,0.1,0,0.2,0
			c0,2.1,0,4.3,0,6.5c0.9,0,1.6,0,2.3,0c0-3.7,0-7.3,0-11c-0.7,0-1.4,0-2.1,0c-0.8-0.1-1.2,0.2-1.5,0.9c-0.7,1.7-1.5,3.3-2.3,5
			c-0.2-0.4-0.3-0.6-0.4-0.8c-0.7-1.5-1.4-3-2.1-4.5c-0.1-0.2-0.3-0.6-0.5-0.6c-1-0.1-2.1,0-3.1,0c0,3.8,0,7.4,0,11
			c0.8,0,1.6,0,2.3,0C66.6,2.5,66.6,0.4,66.6-1.7z M97.3,0.4c-0.1,0-0.1,0-0.2,0.1c-1.4-1.9-3-3.7-4.3-5.6c-0.8-1.2-1.8-1.2-3-1
			c0,3.7,0,7.3,0,10.9c0.8,0,1.5,0,2.3,0c0-2.2,0-4.3,0-6.7c0.3,0.4,0.5,0.5,0.6,0.7c1.2,1.6,2.5,3,3.6,4.7c0.9,1.4,2,1.4,3.4,1.2
			c0-3.7,0-7.3,0-10.9c-0.8,0-1.6,0-2.3,0C97.3-3.9,97.3-1.7,97.3,0.4z M86.8-1.8c-1.7,0-3.3,0-4.9,0c0-0.8,0-1.5,0-2.2
			c1.8,0,3.5,0,5.3,0c0-0.8,0-1.6,0-2.3c-2.6,0-5.2,0-7.7,0c0,3.7,0,7.3,0,10.9c2.7,0,5.3,0,7.9,0c0-0.7,0-1.4,0-2.2
			c-1.9,0-3.7,0-5.5,0c0-0.8,0-1.5,0-2.2c1.7,0,3.3,0,4.9,0C86.8-0.6,86.8-1.1,86.8-1.8z M101.9-6c0,2.1,0,4.2,0,6.3
			c0,2.9,1.9,4.7,4.8,4.7c2.9,0,4.8-1.8,4.8-4.7c0-1.9,0-3.8,0-5.7c0-0.2-0.1-0.4-0.1-0.6c-0.8,0-1.5,0-2.3,0c0,2,0,3.9,0,5.8
			c0,0.6-0.2,1.2-0.4,1.7c-0.3,0.8-0.9,1.2-1.8,1.2c-0.8,0-1.4-0.4-1.8-1.1c-0.5-1-0.9-1.9-0.8-3.1c0.1-1.5,0-3,0-4.6
			C103.4-6,102.7-6,101.9-6z"/>
		<path class="st0" d="M68.1-25.7c11.2-3.5,22.4-7.1,33.7-10.6c0,0.2,0.1,0.4,0.1,0.5c0,3.2,0,6.3,0,9.5c0,0.6-0.2,0.8-0.8,0.8
			c-11,0-22,0-33,0C68.2-25.5,68.2-25.6,68.1-25.7z"/>
		<path d="M110.1,17.4c-14.9,0-29.7,0-44.5,0c0-1.3,0-2.6,0-3.9c14.8,0,29.7,0,44.5,0C110.1,14.8,110.1,16,110.1,17.4z"/>
		<path d="M110.1,25.3c0,1.3,0,2.6,0,3.9c-14.9,0-29.6,0-44.5,0c0-1.3,0-2.5,0-3.9C80.3,25.3,95.1,25.3,110.1,25.3z"/>
		<path d="M110.1,37.3c0,1.3,0,2.6,0,3.9c-14.9,0-29.7,0-44.6,0c0-1.3,0-2.6,0-3.9C80.4,37.3,95.2,37.3,110.1,37.3z"/>
	</g>
</g>
</svg>
