<?xml version="1.0" encoding="UTF-8" standalone="no"?>
<!-- Created with Inkscape (http://www.inkscape.org/) -->

<svg
   xmlns:dc="http://purl.org/dc/elements/1.1/"
   xmlns:cc="http://creativecommons.org/ns#"
   xmlns:rdf="http://www.w3.org/1999/02/22-rdf-syntax-ns#"
   xmlns:svg="http://www.w3.org/2000/svg"
   xmlns="http://www.w3.org/2000/svg"
   xmlns:sodipodi="http://sodipodi.sourceforge.net/DTD/sodipodi-0.dtd"
   xmlns:inkscape="http://www.inkscape.org/namespaces/inkscape"
   width="100"
   height="100"
   viewBox="0 0 26.458333 26.458334"
   version="1.1"
   id="svg7047"
   inkscape:version="0.92.1 r15371"
   sodipodi:docname="video.svg">
  <defs
     id="defs7041" />
  <sodipodi:namedview
     id="base"
     pagecolor="#ffffff"
     bordercolor="#666666"
     borderopacity="1.0"
     inkscape:pageopacity="0.0"
     inkscape:pageshadow="2"
     inkscape:zoom="3.959798"
     inkscape:cx="41.056342"
     inkscape:cy="33.359668"
     inkscape:document-units="mm"
     inkscape:current-layer="layer1"
     showgrid="false"
     units="px"
     inkscape:window-width="1366"
     inkscape:window-height="704"
     inkscape:window-x="0"
     inkscape:window-y="27"
     inkscape:window-maximized="1" />
  <metadata
     id="metadata7044">
    <rdf:RDF>
      <cc:Work
         rdf:about="">
        <dc:format>image/svg+xml</dc:format>
        <dc:type
           rdf:resource="http://purl.org/dc/dcmitype/StillImage" />
        <dc:title></dc:title>
      </cc:Work>
    </rdf:RDF>
  </metadata>
  <g
     inkscape:label="Layer 1"
     inkscape:groupmode="layer"
     id="layer1"
     transform="translate(0,-270.54165)">
    <g
       transform="matrix(3.3701962,0,0,3.3701962,1690.8809,678.54308)"
       id="video">
      <path
         transform="translate(-473.52404,-125.80701)"
         inkscape:transform-center-y="0.1916293"
         inkscape:transform-center-x="0.14609682"
         d="m -21.648027,11.314895 -2.152943,-0.944446 -0.657732,2.10533 -0.983868,-2.8454946 -2.20427,1.0090416 1.803554,-1.7938136 -2.530499,-1.6183405 3.016216,0.025456 -0.192564,-2.2268361 1.737166,1.3879763 1.81636,-1.2210844 -0.887378,1.846126 2.68549,0.598027 -2.490754,1.033929 z"
         inkscape:randomized="-0.101"
         inkscape:rounded="0"
         inkscape:flatsided="false"
         sodipodi:arg2="1.2451857"
         sodipodi:arg1="0.79638673"
         sodipodi:r2="1.9142108"
         sodipodi:r1="3.9311666"
         sodipodi:cy="8.3620892"
         sodipodi:cx="-24.313751"
         sodipodi:sides="7"
         id="path4498"
         style="opacity:1;vector-effect:none;fill:#000000;fill-opacity:1;stroke:none;stroke-width:0.08081173;stroke-linecap:butt;stroke-linejoin:miter;stroke-miterlimit:4;stroke-dasharray:none;stroke-dashoffset:0;stroke-opacity:1"
         sodipodi:type="star" />
    </g>
  </g>
</svg>
